Data mining with {tidymodels} - 3 Regularized regression
…
ridge_pred <- 
  model_fit |> 
  extract_fit_parsnip() |> 
  multi_predict(
    new_data = bake(prep(rec, dat1), dat1)[c('x1', 'x2')], 
    penalty = regularization_path
  )

Let us see prediction results.

dat1 |> 
  bind_cols(ridge_pred) |> 
  unnest(.pred)

# A tibble: 28 × 5
      x1    x2     y penalty .pred
   <dbl> <dbl> <dbl>   <dbl> <dbl>
 1    -6    -3    -3   0     -2.77
 2    -6    -3    -3   0.333 -2.36
 3    -6    -3    -3   0.667 -2.11
 4    -6    -3    -3   1     -1.93
 5    -4    -1    -2   0     -1.81
 6    -4    -1    -2   0.333 -1.45
 7    -4    -1    -2   0.667 -1.26
 8    -4    -1    -2   1     -1.13
 9    -3    -2    -1   0     -1.40
10    -3    -2    -1   0.333 -1.24
# ℹ 18 more rows
