Data mining with {tidymodels} - 4 Dimension reduction
…
tidy(pca_estimates)

# A tibble: 3 × 6
  number operation type      trained skip  id             
   <int> <chr>     <chr>     <lgl>   <lgl> <chr>          
1      1 step      rm        TRUE    FALSE rm_1tRjK       
2      2 step      normalize TRUE    FALSE normalize_K3TXt
3      3 step      pca       TRUE    FALSE pca_J6PxW      

In this example, PCA is the 3rd step. By passing argument number = 3 when calling tidy(), you can extract loadings.

tidy(pca_estimates, number = 3)

# A tibble: 25 × 4
   terms   value component id       
   <chr>   <dbl> <chr>     <chr>    
 1 X1     0.0761 PC1       pca_J6PxW
 2 X2    -0.395  PC1       pca_J6PxW
 3 X3     0.570  PC1       pca_J6PxW
 4 X4    -0.560  PC1       pca_J6PxW
 5 X5    -0.448  PC1       pca_J6PxW
 6 X1     0.780  PC2       pca_J6PxW
 7 X2     0.565  PC2       pca_J6PxW
 8 X3     0.162  PC2       pca_J6PxW
 9 X4    -0.197  PC2       pca_J6PxW
10 X5     0.0864 PC2       pca_J6PxW
# ℹ 15 more rows
…
