Data mining with {tidymodels} - 9 Support vector machine
…
9.3.5 Prediction

Call predict() to make a prediction.

results <- 
  testing_dat |> 
  bind_cols(
    predict(svm_fit, new_data = testing_dat)
  )

results

# A tibble: 228 × 12
        X1    X2    X3    X4    X5    X6    X7    X8    X9   X10 class
     <dbl> <dbl> <dbl> <dbl> <dbl> <dbl> <dbl> <dbl> <dbl> <dbl> <fct>
 1 1000025     5     1     1     1     2     1     3     1     1 2    
 2 1002945     5     4     4     5     7    10     3     2     1 2    
 3 1015425     3     1     1     1     2     2     3     1     1 2    
 4 1016277     6     8     8     1     3     4     3     7     1 2    
 5 1017023     4     1     1     3     2     1     3     1     1 2    
 6 1018561     2     1     2     1     2     1     3     1     1 2    
 7 1035283     1     1     1     1     1     1     3     1     1 2    
 8 1036172     2     1     1     1     2     1     2     1     1 2    
 9 1041801     5     3     3     3     2     3     4     4     1 4    
10 1050718     6     1     1     1     2     1     3     1     1 2    
# ℹ 218 more rows
# ℹ 1 more variable: .pred_class <fct>
…
