Data mining with {tidymodels} - 10 Ensemble
…
10.2.2.6 Estimated function

Let us make a prediction on various input values.

new_data <- tibble(X = seq(min(dat$X), max(dat$X), length = 100))

new_results <-
  new_data |> 
  bind_cols(predict(gbm_fit, new_data = new_data))

new_results

# A tibble: 100 × 2
       X  .pred
   <dbl>  <dbl>
 1 -5    0.0808
 2 -4.90 0.0808
 3 -4.80 0.0808
 4 -4.70 0.0808
 5 -4.60 0.0808
 6 -4.49 0.0808
 7 -4.39 0.0808
 8 -4.29 0.0808
 9 -4.19 0.0808
10 -4.09 0.0808
# ℹ 90 more rows
…
